INDEX VERSION 1.130+C:\Users\snichatu\eclipse-workspace\.metadata\.plugins\org.eclipse.jdt.core
3228668835.index
1773785916.index
1483201786.index
3308826427.index
966656968.index
4267160747.index
458467314.index
3379149465.index
1960526578.index
1227336239.index
1636174000.index
377567270.index
3087648108.index
1880849867.index
4293041427.index
2296753541.index
2463232402.index
295942267.index
4170144010.index
342931178.index
1247347516.index
698356533.index
